<?xml version="1.0" encoding="UTF-8"?>
<svg width="40px" height="40px" viewBox="0 0 40 40" version="1.1" xmlns="http://www.w3.org/2000/svg" xmlns:xlink="http://www.w3.org/1999/xlink">
    <!-- Generator: Sketch 53.2 (72643) - https://sketchapp.com -->
    <title>Group 32 Copy</title>
    <desc>Created with Sketch.</desc>
    <g id="spec" stroke="none" stroke-width="1" fill="none" fill-rule="evenodd">
        <g id="Artboard" transform="translate(-251.000000, -960.000000)">
            <g id="Group-32-Copy" transform="translate(251.000000, 960.000000)">
                <rect id="Rectangle-Copy-51" fill="#6699F0" fill-rule="nonzero" x="0" y="0" width="40" height="40" rx="2"></rect>
                <g id="Group-29" transform="translate(5.000000, 7.000000)" fill="#000000">
                    <path d="M23.9661356,8.21552751 L22.5035365,7.67668492 C22.4255198,7.23300786 22.309352,6.80176232 22.1580339,6.38723506 L22.1601772,6.39409383 L23.1589626,5.19509407 C22.9364864,4.71883782 22.6728585,4.26487259 22.3736515,3.83791379 L22.3727942,3.83748512 L20.8356076,4.10369136 L20.8386083,4.10583472 C20.5526899,3.76546797 20.238051,3.45039295 19.8976924,3.1648964 L19.8972637,3.16403906 L20.1630349,1.62681591 L20.1647496,1.6285306 C19.7369436,1.32803048 19.2817032,1.06396761 18.803315,0.840628721 L18.804601,0.841057395 L17.6064871,1.83943796 L17.6077731,1.84029531 C17.1958277,1.68983091 16.7671644,1.57451774 16.3256412,1.49692784 L16.3230692,1.49607049 L15.7846681,0.0334365325 L15.7928127,0.0342938795 C15.5313281,0.0115741843 15.2672716,0 15.0002143,0 C14.7357291,0 14.4733872,0.0115741843 14.2157605,0.0334365325 L13.6773594,1.49692784 L13.6773594,1.49607049 C13.2302636,1.57494642 12.7964564,1.69240295 12.3802243,1.84458204 L12.3939416,1.83943796 L11.1958277,0.841057395 L11.195399,0.841486068 C10.7187254,1.06396761 10.2643424,1.32717314 9.83739373,1.62681591 L10.103165,3.16403906 C9.76323498,3.4495356 9.44902479,3.76418195 9.16353504,4.10412003 L9.16482103,4.10369136 L7.62720583,3.83748512 C7.32757019,4.26444392 7.06394227,4.71883782 6.84146603,5.19509407 L7.83982282,6.39366516 C7.68936201,6.80604906 7.57405158,7.23472255 7.49646353,7.67668492 L6.0338644,8.21552751 C6.01157391,8.47401762 6,8.73593713 6,9 C6,9.26406287 6.01157391,9.52641105 6.0338644,9.78404382 L7.49646353,10.3233151 C7.57405158,10.7652774 7.68936201,11.1939509 7.83982282,11.6059062 L6.84146603,12.8049059 C7.06394227,13.2811622 7.32757019,13.7359848 7.62720583,14.1633722 L9.16482103,13.8967373 L9.16353504,13.89588 C9.44902479,14.2358181 9.76323498,14.5508931 10.103165,14.8363896 L9.83739373,16.3731841 C10.2643424,16.6728269 10.7187254,16.9360324 11.195399,17.1585139 L11.1958277,17.1589426 L12.3939416,16.160562 L12.3802243,16.155418 C12.7964564,16.3080257 13.2302636,16.4250536 13.6773594,16.5039295 L13.6773594,16.5030722 L14.2157605,17.9665635 C14.4733872,17.9888545 14.7357291,18 15.0002143,18 C15.2672716,18 15.5313281,17.9884258 15.7928127,17.9661348 L15.7846681,17.9665635 L16.3230692,16.5035008 L16.3256412,16.5030722 C16.7671644,16.4254823 17.1958277,16.3101691 17.6077731,16.1601334 L17.6064871,16.160562 L18.804601,17.1589426 L18.803315,17.1593713 C19.2817032,16.9360324 19.7369436,16.6723982 20.1647496,16.3714694 L20.1630349,16.3731841 L19.8972637,14.8363896 L19.8976924,14.8351036 C20.238051,14.549607 20.5526899,14.2349607 20.8386083,13.8941653 L20.8356076,13.8967373 L22.3727942,14.1633722 L22.3736515,14.1620862 C22.6728585,13.7351274 22.9364864,13.2811622 23.1589626,12.8049059 L22.1601772,11.6059062 L22.1580339,11.6127649 C22.309352,11.1982377 22.4255198,10.7678495 22.5035365,10.3233151 L23.9661356,9.78404382 C23.9888548,9.52641105 24,9.26406287 24,9 C24,8.73593713 23.9888548,8.47401762 23.9661356,8.21552751 M9,8.99941267 C9,5.68567886 11.6860704,3 15.0001958,3 C18.3139296,3 21,5.68567886 21,8.99941267 C21,12.3139296 18.3139296,15 15.0001958,15 C11.6860704,15 9,12.3139296 9,8.99941267" id="Fill-2"></path>
                    <path d="M29.9774237,20.4770183 L29.0023576,20.1177899 C28.9503465,19.8220052 28.8729013,19.5345082 28.7720226,19.2581567 L28.7734515,19.2627292 L29.4393084,18.463396 C29.2909909,18.1458919 29.115239,17.8432484 28.9157677,17.5586092 L28.9151961,17.5583234 L27.8904051,17.7357942 L27.8924055,17.7372231 C27.7017932,17.510312 27.492034,17.300262 27.2651282,17.1099309 L27.2648425,17.1093594 L27.4420233,16.0845439 L27.4431664,16.0856871 C27.1579624,15.8853537 26.8544688,15.7093117 26.5355433,15.5604191 L26.5364007,15.5607049 L25.7376581,16.226292 L25.7385154,16.2268635 C25.4638851,16.1265539 25.1781096,16.0496785 24.8837608,15.9979519 L24.8820462,15.9973803 L24.5231121,15.022291 L24.5285418,15.0228626 C24.3542188,15.0077161 24.178181,15 24.0001429,15 C23.8238194,15 23.6489248,15.0077161 23.4771737,15.022291 L23.1182396,15.9979519 L23.1182396,15.9973803 C22.8201758,16.0499643 22.5309709,16.1282686 22.2534829,16.2297214 L22.2626277,16.226292 L21.4638851,15.5607049 L21.4635993,15.5609907 C21.145817,15.7093117 20.8428949,15.8847821 20.5582625,16.0845439 L20.7354433,17.1093594 C20.5088233,17.2996904 20.2993499,17.5094546 20.1090234,17.73608 L20.1098807,17.7357942 L19.0848039,17.5583234 C18.8850468,17.8429626 18.7092948,18.1458919 18.5609774,18.463396 L19.2265485,19.2624434 C19.1262413,19.537366 19.0493677,19.8231484 18.9976424,20.1177899 L18.0225763,20.4770183 C18.0077159,20.6493451 18,20.8239581 18,21 C18,21.1760419 18.0077159,21.3509407 18.0225763,21.5226959 L18.9976424,21.8822101 C19.0493677,22.1768516 19.1262413,22.462634 19.2265485,22.7372708 L18.5609774,23.536604 C18.7092948,23.8541081 18.8850468,24.1573232 19.0848039,24.4422482 L20.1098807,24.2644915 L20.1090234,24.26392 C20.2993499,24.4905454 20.5088233,24.7005954 20.7354433,24.8909264 L20.5582625,25.9154561 C20.8428949,26.1152179 21.145817,26.2906883 21.4635993,26.4390093 L21.4638851,26.4392951 L22.2626277,25.773708 L22.2534829,25.7702786 C22.5309709,25.8720171 22.8201758,25.9500357 23.1182396,26.0026197 L23.1182396,26.0020481 L23.4771737,26.977709 C23.6489248,26.9925697 23.8238194,27 24.0001429,27 C24.178181,27 24.3542188,26.9922839 24.5285418,26.9774232 L24.5231121,26.977709 L24.8820462,26.0023339 L24.8837608,26.0020481 C25.1781096,25.9503215 25.4638851,25.8734461 25.7385154,25.7734222 L25.7376581,25.773708 L26.5364007,26.4392951 L26.5355433,26.4395809 C26.8544688,26.2906883 27.1579624,26.1149321 27.4431664,25.9143129 L27.4420233,25.9154561 L27.2648425,24.8909264 L27.2651282,24.8900691 C27.492034,24.699738 27.7017932,24.4899738 27.8924055,24.2627769 L27.8904051,24.2644915 L28.9151961,24.4422482 L28.9157677,24.4413908 C29.115239,24.1567516 29.2909909,23.8541081 29.4393084,23.536604 L28.7734515,22.7372708 L28.7720226,22.7418433 C28.8729013,22.4654918 28.9503465,22.1785663 29.0023576,21.8822101 L29.9774237,21.5226959 C29.9925698,21.3509407 30,21.1760419 30,21 C30,20.8239581 29.9925698,20.6493451 29.9774237,20.4770183 M20,20.9996084 C20,18.7904526 21.7907136,17 24.0001305,17 C26.2092864,17 28,18.7904526 28,20.9996084 C28,23.2092864 26.2092864,25 24.0001305,25 C21.7907136,25 20,23.2092864 20,20.9996084" id="Fill-2-Copy"></path>
                    <path d="M11.9774237,20.4770183 L11.0023576,20.1177899 C10.9503465,19.8220052 10.8729013,19.5345082 10.7720226,19.2581567 L10.7734515,19.2627292 L11.4393084,18.463396 C11.2909909,18.1458919 11.115239,17.8432484 10.9157677,17.5586092 L10.9151961,17.5583234 L9.89040509,17.7357942 L9.89240552,17.7372231 C9.70179324,17.510312 9.49203401,17.300262 9.26512824,17.1099309 L9.26484247,17.1093594 L9.44202329,16.0845439 L9.44316639,16.0856871 C9.15796242,15.8853537 8.85446881,15.7093117 8.53554333,15.5604191 L8.53640066,15.5607049 L7.73765807,16.226292 L7.7385154,16.2268635 C7.46388512,16.1265539 7.17810959,16.0496785 6.88376081,15.9979519 L6.88204615,15.9973803 L6.5231121,15.022291 L6.52854183,15.0228626 C6.35421876,15.0077161 6.17818104,15 6.00014289,15 C5.82381939,15 5.64892477,15.0077161 5.47717368,15.022291 L5.11823962,15.9979519 L5.11823962,15.9973803 C4.82017575,16.0499643 4.53097092,16.1282686 4.25348289,16.2297214 L4.26262771,16.226292 L3.46388512,15.5607049 L3.46359934,15.5609907 C3.14581696,15.7093117 2.84289491,15.8847821 2.55826248,16.0845439 L2.73544331,17.1093594 C2.50882332,17.2996904 2.29934986,17.5094546 2.10902336,17.73608 L2.10988069,17.7357942 L1.08480389,17.5583234 C0.885046796,17.8429626 0.709294849,18.1458919 0.560977352,18.463396 L1.22654855,19.2624434 C1.12624134,19.537366 1.04936772,19.8231484 0.997642352,20.1177899 L0.0225762663,20.4770183 C0.00771593913,20.6493451 0,20.8239581 0,21 C0,21.1760419 0.00771593913,21.3509407 0.0225762663,21.5226959 L0.997642352,21.8822101 C1.04936772,22.1768516 1.12624134,22.462634 1.22654855,22.7372708 L0.560977352,23.536604 C0.709294849,23.8541081 0.885046796,24.1573232 1.08480389,24.4422482 L2.10988069,24.2644915 L2.10902336,24.26392 C2.29934986,24.4905454 2.50882332,24.7005954 2.73544331,24.8909264 L2.55826248,25.9154561 C2.84289491,26.1152179 3.14581696,26.2906883 3.46359934,26.4390093 L3.46388512,26.4392951 L4.26262771,25.773708 L4.25348289,25.7702786 C4.53097092,25.8720171 4.82017575,25.9500357 5.11823962,26.0026197 L5.11823962,26.0020481 L5.47717368,26.977709 C5.64892477,26.9925697 5.82381939,27 6.00014289,27 C6.17818104,27 6.35421876,26.9922839 6.52854183,26.9774232 L6.5231121,26.977709 L6.88204615,26.0023339 L6.88376081,26.0020481 C7.17810959,25.9503215 7.46388512,25.8734461 7.7385154,25.7734222 L7.73765807,25.773708 L8.53640066,26.4392951 L8.53554333,26.4395809 C8.85446881,26.2906883 9.15796242,26.1149321 9.44316639,25.9143129 L9.44202329,25.9154561 L9.26484247,24.8909264 L9.26512824,24.8900691 C9.49203401,24.699738 9.70179324,24.4899738 9.89240552,24.2627769 L9.89040509,24.2644915 L10.9151961,24.4422482 L10.9157677,24.4413908 C11.115239,24.1567516 11.2909909,23.8541081 11.4393084,23.536604 L10.7734515,22.7372708 L10.7720226,22.7418433 C10.8729013,22.4654918 10.9503465,22.1785663 11.0023576,21.8822101 L11.9774237,21.5226959 C11.9925698,21.3509407 12,21.1760419 12,21 C12,20.8239581 11.9925698,20.6493451 11.9774237,20.4770183 M2,20.9996084 C2,18.7904526 3.79071361,17 6.00013052,17 C8.20928639,17 10,18.7904526 10,20.9996084 C10,23.2092864 8.20928639,25 6.00013052,25 C3.79071361,25 2,23.2092864 2,20.9996084" id="Fill-2-Copy-2"></path>
                </g>
            </g>
        </g>
    </g>
</svg>