<?xml version="1.0" encoding="UTF-8"?>
<svg width="1188px" height="422px" viewBox="0 0 1188 422" version="1.1" xmlns="http://www.w3.org/2000/svg" xmlns:xlink="http://www.w3.org/1999/xlink">
    <!-- Generator: Sketch 53.2 (72643) - https://sketchapp.com -->
    <title>bg_monitoring_2</title>
    <desc>Created with Sketch.</desc>
    <g id="spec" stroke="none" stroke-width="1" fill="none" fill-rule="evenodd">
        <g id="Artboard" transform="translate(-899.000000, -143.000000)" fill="#282828" fill-rule="nonzero">
            <rect id="bg_monitoring_2" x="899" y="143" width="1188" height="422" rx="4"></rect>
        </g>
    </g>
</svg>