<?xml version="1.0" encoding="UTF-8"?>
<svg width="13px" height="19px" viewBox="0 0 13 19" version="1.1" xmlns="http://www.w3.org/2000/svg" xmlns:xlink="http://www.w3.org/1999/xlink">
    <!-- Generator: Sketch 53.2 (72643) - https://sketchapp.com -->
    <title>btn_arrow_right_default</title>
    <desc>Created with Sketch.</desc>
    <g id="spec" stroke="none" stroke-width="1" fill="none" fill-rule="evenodd">
        <g id="Artboard" transform="translate(-675.000000, -264.000000)">
            <g id="btn_arrow_right_default" transform="translate(656.000000, 249.000000)">
                <rect id="Rectangle-Copy-3" x="0" y="0" width="48" height="48"></rect>
                <path d="M26.792624,19.0304112 L34.761761,29.3902892 C35.0984949,29.8280434 35.0166019,30.45589 34.5788477,30.792624 C34.4040391,30.9270921 34.1896811,31 33.969137,31 L18.030863,31 C17.4785783,31 17.030863,30.5522847 17.030863,30 C17.030863,29.7794558 17.1037709,29.5650978 17.238239,29.3902892 L25.207376,19.0304112 C25.54411,18.592657 26.1719566,18.510764 26.6097108,18.847498 C26.6783439,18.9002927 26.7398293,18.961778 26.792624,19.0304112 Z" id="Triangle-Copy-5" fill="#6699F0" transform="translate(26.000000, 24.500000) rotate(-270.000000) translate(-26.000000, -24.500000) "></path>
            </g>
        </g>
    </g>
</svg>