<?xml version="1.0" encoding="UTF-8"?>
<svg width="72px" height="24px" viewBox="0 0 72 24" version="1.1" xmlns="http://www.w3.org/2000/svg" xmlns:xlink="http://www.w3.org/1999/xlink">
    <!-- Generator: Sketch 53.2 (72643) - https://sketchapp.com -->
    <title>ico_alarm_message</title>
    <desc>Created with Sketch.</desc>
    <g id="spec" stroke="none" stroke-width="1" fill="none" fill-rule="evenodd">
        <g id="Artboard" transform="translate(-1571.000000, -268.000000)" fill="#B42F1A">
            <g id="ico_alarm_message" transform="translate(1571.000000, 268.000000)">
                <rect id="Rectangle" x="0" y="0" width="72" height="24" rx="2"></rect>
            </g>
        </g>
    </g>
</svg>