<?xml version="1.0" encoding="UTF-8"?>
<svg width="206px" height="48px" viewBox="0 0 206 48" version="1.1" xmlns="http://www.w3.org/2000/svg" xmlns:xlink="http://www.w3.org/1999/xlink">
    <!-- Generator: Sketch 53.2 (72643) - https://sketchapp.com -->
    <title>btn_mode_automation</title>
    <desc>Created with Sketch.</desc>
    <defs>
        <linearGradient x1="0%" y1="46.8255937%" x2="100%" y2="53.1744063%" id="linearGradient-1">
            <stop stop-color="#6699F0" offset="0%"></stop>
            <stop stop-color="#666BF0" offset="100%"></stop>
        </linearGradient>
    </defs>
    <g id="spec" stroke="none" stroke-width="1" fill="none" fill-rule="evenodd">
        <g id="Artboard" transform="translate(-1571.000000, -482.000000)" fill-rule="nonzero">
            <g id="btn_mode_automation" transform="translate(1571.000000, 482.000000)">
                <rect id="Rectangle-Copy-81" fill="#000000" x="0" y="0" width="206" height="48" rx="4"></rect>
                <rect id="Rectangle-Copy-82" fill="url(#linearGradient-1)" x="71" y="8" width="127" height="32" rx="4"></rect>
            </g>
        </g>
    </g>
</svg>